<?xml version="1.0" encoding="utf-8" standalone="no"?>
<!DOCTYPE svg PUBLIC "-//W3C//DTD SVG 1.1//EN"
  "http://www.w3.org/Graphics/SVG/1.1/DTD/svg11.dtd">
<!-- Created with matplotlib (https://matplotlib.org/) -->
<svg height="540pt" version="1.1" viewBox="0 0 720 540" width="720pt" xmlns="http://www.w3.org/2000/svg" xmlns:xlink="http://www.w3.org/1999/xlink">
 <metadata>
  <rdf:RDF xmlns:cc="http://creativecommons.org/ns#" xmlns:dc="http://purl.org/dc/elements/1.1/" xmlns:rdf="http://www.w3.org/1999/02/22-rdf-syntax-ns#">
   <cc:Work>
    <dc:type rdf:resource="http://purl.org/dc/dcmitype/StillImage"/>
    <dc:date>2021-02-03T16:25:47.648674</dc:date>
    <dc:format>image/svg+xml</dc:format>
    <dc:creator>
     <cc:Agent>
      <dc:title>Matplotlib v3.3.3, https://matplotlib.org/</dc:title>
     </cc:Agent>
    </dc:creator>
   </cc:Work>
  </rdf:RDF>
 </metadata>
 <defs>
  <style type="text/css">*{stroke-linecap:butt;stroke-linejoin:round;}</style>
 </defs>
 <g id="figure_1">
  <g id="patch_1">
   <path d="M 0 540 
L 720 540 
L 720 0 
L 0 0 
z
" style="fill:#ffffff;"/>
  </g>
  <g id="axes_1">
   <g id="patch_2">
    <path d="M 90 253.8 
L 648 253.8 
L 648 64.8 
L 90 64.8 
z
" style="fill:#ffffff;"/>
   </g>
   <g id="matplotlib.axis_1">
    <g id="xtick_1">
     <g id="line2d_1">
      <defs>
       <path d="M 0 0 
L 0 3.5 
" id="m7ca7e4f906" style="stroke:#000000;stroke-width:0.8;"/>
      </defs>
      <g>
       <use style="stroke:#000000;stroke-width:0.8;" x="115.385143" xlink:href="#m7ca7e4f906" y="253.8"/>
      </g>
     </g>
     <g id="text_1">
      <text style="font-family:DejaVu Sans;font-size:10px;font-stretch:normal;font-style:normal;font-weight:normal;text-anchor:middle;" transform="rotate(-0, 115.385143, 268.398438)" x="115.385143" y="268.398438">0.0</text>
     </g>
    </g>
    <g id="xtick_2">
     <g id="line2d_2">
      <g>
       <use style="stroke:#000000;stroke-width:0.8;" x="216.829533" xlink:href="#m7ca7e4f906" y="253.8"/>
      </g>
     </g>
     <g id="text_2">
      <text style="font-family:DejaVu Sans;font-size:10px;font-stretch:normal;font-style:normal;font-weight:normal;text-anchor:middle;" transform="rotate(-0, 216.829533, 268.398438)" x="216.829533" y="268.398438">0.2</text>
     </g>
    </g>
    <g id="xtick_3">
     <g id="line2d_3">
      <g>
       <use style="stroke:#000000;stroke-width:0.8;" x="318.273924" xlink:href="#m7ca7e4f906" y="253.8"/>
      </g>
     </g>
     <g id="text_3">
      <text style="font-family:DejaVu Sans;font-size:10px;font-stretch:normal;font-style:normal;font-weight:normal;text-anchor:middle;" transform="rotate(-0, 318.273924, 268.398438)" x="318.273924" y="268.398438">0.4</text>
     </g>
    </g>
    <g id="xtick_4">
     <g id="line2d_4">
      <g>
       <use style="stroke:#000000;stroke-width:0.8;" x="419.718315" xlink:href="#m7ca7e4f906" y="253.8"/>
      </g>
     </g>
     <g id="text_4">
      <text style="font-family:DejaVu Sans;font-size:10px;font-stretch:normal;font-style:normal;font-weight:normal;text-anchor:middle;" transform="rotate(-0, 419.718315, 268.398438)" x="419.718315" y="268.398438">0.6</text>
     </g>
    </g>
    <g id="xtick_5">
     <g id="line2d_5">
      <g>
       <use style="stroke:#000000;stroke-width:0.8;" x="521.162706" xlink:href="#m7ca7e4f906" y="253.8"/>
      </g>
     </g>
     <g id="text_5">
      <text style="font-family:DejaVu Sans;font-size:10px;font-stretch:normal;font-style:normal;font-weight:normal;text-anchor:middle;" transform="rotate(-0, 521.162706, 268.398438)" x="521.162706" y="268.398438">0.8</text>
     </g>
    </g>
    <g id="xtick_6">
     <g id="line2d_6">
      <g>
       <use style="stroke:#000000;stroke-width:0.8;" x="622.607097" xlink:href="#m7ca7e4f906" y="253.8"/>
      </g>
     </g>
     <g id="text_6">
      <text style="font-family:DejaVu Sans;font-size:10px;font-stretch:normal;font-style:normal;font-weight:normal;text-anchor:middle;" transform="rotate(-0, 622.607097, 268.398438)" x="622.607097" y="268.398438">1.0</text>
     </g>
    </g>
    <g id="text_7">
     <text style="font-family:DejaVu Sans;font-size:10px;font-stretch:normal;font-style:normal;font-weight:normal;text-anchor:middle;" transform="rotate(-0, 369, 282.076563)" x="369" y="282.076563">X dither error [pixel]</text>
    </g>
   </g>
   <g id="matplotlib.axis_2">
    <g id="ytick_1">
     <g id="line2d_7">
      <defs>
       <path d="M 0 0 
L -3.5 0 
" id="m79b33ffa6f" style="stroke:#000000;stroke-width:0.8;"/>
      </defs>
      <g>
       <use style="stroke:#000000;stroke-width:0.8;" x="90" xlink:href="#m79b33ffa6f" y="253.8"/>
      </g>
     </g>
     <g id="text_8">
      <text style="font-family:DejaVu Sans;font-size:10px;font-stretch:normal;font-style:normal;font-weight:normal;text-anchor:end;" transform="rotate(-0, 83, 257.599219)" x="83" y="257.599219">0</text>
     </g>
    </g>
    <g id="ytick_2">
     <g id="line2d_8">
      <g>
       <use style="stroke:#000000;stroke-width:0.8;" x="90" xlink:href="#m79b33ffa6f" y="221.14075"/>
      </g>
     </g>
     <g id="text_9">
      <text style="font-family:DejaVu Sans;font-size:10px;font-stretch:normal;font-style:normal;font-weight:normal;text-anchor:end;" transform="rotate(-0, 83, 224.939969)" x="83" y="224.939969">1</text>
     </g>
    </g>
    <g id="ytick_3">
     <g id="line2d_9">
      <g>
       <use style="stroke:#000000;stroke-width:0.8;" x="90" xlink:href="#m79b33ffa6f" y="188.481501"/>
      </g>
     </g>
     <g id="text_10">
      <text style="font-family:DejaVu Sans;font-size:10px;font-stretch:normal;font-style:normal;font-weight:normal;text-anchor:end;" transform="rotate(-0, 83, 192.280719)" x="83" y="192.280719">2</text>
     </g>
    </g>
    <g id="ytick_4">
     <g id="line2d_10">
      <g>
       <use style="stroke:#000000;stroke-width:0.8;" x="90" xlink:href="#m79b33ffa6f" y="155.822251"/>
      </g>
     </g>
     <g id="text_11">
      <text style="font-family:DejaVu Sans;font-size:10px;font-stretch:normal;font-style:normal;font-weight:normal;text-anchor:end;" transform="rotate(-0, 83, 159.62147)" x="83" y="159.62147">3</text>
     </g>
    </g>
    <g id="ytick_5">
     <g id="line2d_11">
      <g>
       <use style="stroke:#000000;stroke-width:0.8;" x="90" xlink:href="#m79b33ffa6f" y="123.163001"/>
      </g>
     </g>
     <g id="text_12">
      <text style="font-family:DejaVu Sans;font-size:10px;font-stretch:normal;font-style:normal;font-weight:normal;text-anchor:end;" transform="rotate(-0, 83, 126.96222)" x="83" y="126.96222">4</text>
     </g>
    </g>
    <g id="ytick_6">
     <g id="line2d_12">
      <g>
       <use style="stroke:#000000;stroke-width:0.8;" x="90" xlink:href="#m79b33ffa6f" y="90.503752"/>
      </g>
     </g>
     <g id="text_13">
      <text style="font-family:DejaVu Sans;font-size:10px;font-stretch:normal;font-style:normal;font-weight:normal;text-anchor:end;" transform="rotate(-0, 83, 94.302971)" x="83" y="94.302971">5</text>
     </g>
    </g>
    <g id="text_14">
     <text style="font-family:DejaVu Sans;font-size:10px;font-stretch:normal;font-style:normal;font-weight:normal;text-anchor:middle;" transform="rotate(-90, 70.557812, 159.3)" x="70.557812" y="159.3">Probability distribution</text>
    </g>
   </g>
   <g id="patch_3">
    <path clip-path="url(#p6da4d5f6ed)" d="M 115.363636 253.8 
L 115.363636 73.8 
L 135.654519 73.8 
L 135.654519 82.168106 
L 155.945402 82.168106 
L 155.945402 220.939877 
L 176.236285 220.939877 
L 176.236285 253.8 
L 196.527167 253.8 
L 196.527167 253.8 
L 216.81805 253.8 
L 216.81805 253.8 
L 237.108933 253.8 
L 237.108933 253.8 
L 257.399815 253.8 
L 257.399815 253.8 
L 277.690698 253.8 
L 277.690698 253.8 
L 297.981581 253.8 
L 297.981581 253.8 
L 318.272464 253.8 
L 318.272464 253.8 
L 338.563346 253.8 
L 338.563346 253.8 
L 358.854229 253.8 
L 358.854229 253.8 
L 379.145112 253.8 
L 379.145112 253.8 
L 399.435994 253.8 
L 399.435994 253.8 
L 419.726877 253.8 
L 419.726877 253.8 
L 440.01776 253.8 
L 440.01776 253.8 
L 460.308643 253.8 
L 460.308643 253.8 
L 480.599525 253.8 
L 480.599525 253.8 
L 500.890408 253.8 
L 500.890408 253.8 
L 521.181291 253.8 
L 521.181291 253.8 
L 541.472173 253.8 
L 541.472173 253.8 
L 561.763056 253.8 
L 561.763056 175.433708 
L 582.053939 175.433708 
L 582.053939 78.469811 
L 602.344822 78.469811 
L 602.344822 75.587917 
L 622.635704 75.587917 
L 622.635704 253.8 
" style="fill:none;stroke:#1f77b4;stroke-linejoin:miter;"/>
   </g>
   <g id="patch_4">
    <path clip-path="url(#p6da4d5f6ed)" d="M 115.364803 253.8 
L 115.364803 79.890174 
L 135.655665 79.890174 
L 135.655665 84.127298 
L 155.946528 84.127298 
L 155.946528 214.531093 
L 176.23739 214.531093 
L 176.23739 253.8 
L 196.528253 253.8 
L 196.528253 253.8 
L 216.819115 253.8 
L 216.819115 253.8 
L 237.109978 253.8 
L 237.109978 253.8 
L 257.40084 253.8 
L 257.40084 253.8 
L 277.691702 253.8 
L 277.691702 253.8 
L 297.982565 253.8 
L 297.982565 253.8 
L 318.273427 253.8 
L 318.273427 253.8 
L 338.56429 253.8 
L 338.56429 253.8 
L 358.855152 253.8 
L 358.855152 253.8 
L 379.146015 253.8 
L 379.146015 253.8 
L 399.436877 253.8 
L 399.436877 253.8 
L 419.727739 253.8 
L 419.727739 253.8 
L 440.018602 253.8 
L 440.018602 253.8 
L 460.309464 253.8 
L 460.309464 253.8 
L 480.600327 253.8 
L 480.600327 253.8 
L 500.891189 253.8 
L 500.891189 253.8 
L 521.182052 253.8 
L 521.182052 253.8 
L 541.472914 253.8 
L 541.472914 253.8 
L 561.763776 253.8 
L 561.763776 166.387902 
L 582.054639 166.387902 
L 582.054639 80.241227 
L 602.345501 80.241227 
L 602.345501 81.220909 
L 622.636364 81.220909 
L 622.636364 253.8 
" style="fill:none;stroke:#ff7f0e;stroke-linejoin:miter;"/>
   </g>
   <g id="patch_5">
    <path clip-path="url(#p6da4d5f6ed)" d="M 115.364854 253.8 
L 115.364854 79.947305 
L 135.655714 79.947305 
L 135.655714 84.159937 
L 155.946574 84.159937 
L 155.946574 214.637221 
L 176.237435 214.637221 
L 176.237435 253.8 
L 196.528295 253.8 
L 196.528295 253.8 
L 216.819156 253.8 
L 216.819156 253.8 
L 237.110016 253.8 
L 237.110016 253.8 
L 257.400876 253.8 
L 257.400876 253.8 
L 277.691737 253.8 
L 277.691737 253.8 
L 297.982597 253.8 
L 297.982597 253.8 
L 318.273458 253.8 
L 318.273458 253.8 
L 338.564318 253.8 
L 338.564318 253.8 
L 358.855178 253.8 
L 358.855178 253.8 
L 379.146039 253.8 
L 379.146039 253.8 
L 399.436899 253.8 
L 399.436899 253.8 
L 419.72776 253.8 
L 419.72776 253.8 
L 440.01862 253.8 
L 440.01862 253.8 
L 460.30948 253.8 
L 460.30948 253.8 
L 480.600341 253.8 
L 480.600341 253.8 
L 500.891201 253.8 
L 500.891201 253.8 
L 521.182062 253.8 
L 521.182062 253.8 
L 541.472922 253.8 
L 541.472922 253.8 
L 561.763782 253.8 
L 561.763782 166.028677 
L 582.054643 166.028677 
L 582.054643 80.331014 
L 602.345503 80.331014 
L 602.345503 81.294368 
L 622.636364 81.294368 
L 622.636364 253.8 
" style="fill:none;stroke:#2ca02c;stroke-linejoin:miter;"/>
   </g>
   <g id="patch_6">
    <path d="M 90 253.8 
L 90 64.8 
" style="fill:none;stroke:#000000;stroke-linecap:square;stroke-linejoin:miter;stroke-width:0.8;"/>
   </g>
   <g id="patch_7">
    <path d="M 648 253.8 
L 648 64.8 
" style="fill:none;stroke:#000000;stroke-linecap:square;stroke-linejoin:miter;stroke-width:0.8;"/>
   </g>
   <g id="patch_8">
    <path d="M 90 253.8 
L 648 253.8 
" style="fill:none;stroke:#000000;stroke-linecap:square;stroke-linejoin:miter;stroke-width:0.8;"/>
   </g>
   <g id="patch_9">
    <path d="M 90 64.8 
L 648 64.8 
" style="fill:none;stroke:#000000;stroke-linecap:square;stroke-linejoin:miter;stroke-width:0.8;"/>
   </g>
   <g id="legend_1">
    <g id="patch_10">
     <path d="M 568.360937 116.834375 
L 641 116.834375 
Q 643 116.834375 643 114.834375 
L 643 71.8 
Q 643 69.8 641 69.8 
L 568.360937 69.8 
Q 566.360937 69.8 566.360937 71.8 
L 566.360937 114.834375 
Q 566.360937 116.834375 568.360937 116.834375 
z
" style="fill:#ffffff;opacity:0.8;stroke:#cccccc;stroke-linejoin:miter;"/>
    </g>
    <g id="patch_11">
     <path d="M 570.360937 81.398438 
L 590.360937 81.398438 
L 590.360937 74.398438 
L 570.360937 74.398438 
z
" style="fill:none;stroke:#1f77b4;stroke-linejoin:miter;"/>
    </g>
    <g id="text_15">
     <text style="font-family:DejaVu Sans;font-size:10px;font-stretch:normal;font-style:normal;font-weight:normal;text-anchor:start;" transform="rotate(-0, 598.360937, 81.398438)" x="598.360937" y="81.398438">ndshift1</text>
    </g>
    <g id="patch_12">
     <path d="M 570.360937 96.076563 
L 590.360937 96.076563 
L 590.360937 89.076563 
L 570.360937 89.076563 
z
" style="fill:none;stroke:#ff7f0e;stroke-linejoin:miter;"/>
    </g>
    <g id="text_16">
     <text style="font-family:DejaVu Sans;font-size:10px;font-stretch:normal;font-style:normal;font-weight:normal;text-anchor:start;" transform="rotate(-0, 598.360937, 96.076563)" x="598.360937" y="96.076563">ndshift3</text>
    </g>
    <g id="patch_13">
     <path d="M 570.360937 110.754687 
L 590.360937 110.754687 
L 590.360937 103.754687 
L 570.360937 103.754687 
z
" style="fill:none;stroke:#2ca02c;stroke-linejoin:miter;"/>
    </g>
    <g id="text_17">
     <text style="font-family:DejaVu Sans;font-size:10px;font-stretch:normal;font-style:normal;font-weight:normal;text-anchor:start;" transform="rotate(-0, 598.360937, 110.754687)" x="598.360937" y="110.754687">fftshift</text>
    </g>
   </g>
  </g>
  <g id="axes_2">
   <g id="patch_14">
    <path d="M 90 480.6 
L 648 480.6 
L 648 291.6 
L 90 291.6 
z
" style="fill:#ffffff;"/>
   </g>
   <g id="matplotlib.axis_3">
    <g id="xtick_7">
     <g id="line2d_13">
      <g>
       <use style="stroke:#000000;stroke-width:0.8;" x="115.387983" xlink:href="#m7ca7e4f906" y="480.6"/>
      </g>
     </g>
     <g id="text_18">
      <text style="font-family:DejaVu Sans;font-size:10px;font-stretch:normal;font-style:normal;font-weight:normal;text-anchor:middle;" transform="rotate(-0, 115.387983, 495.198438)" x="115.387983" y="495.198438">0.0</text>
     </g>
    </g>
    <g id="xtick_8">
     <g id="line2d_14">
      <g>
       <use style="stroke:#000000;stroke-width:0.8;" x="216.833033" xlink:href="#m7ca7e4f906" y="480.6"/>
      </g>
     </g>
     <g id="text_19">
      <text style="font-family:DejaVu Sans;font-size:10px;font-stretch:normal;font-style:normal;font-weight:normal;text-anchor:middle;" transform="rotate(-0, 216.833033, 495.198438)" x="216.833033" y="495.198438">0.2</text>
     </g>
    </g>
    <g id="xtick_9">
     <g id="line2d_15">
      <g>
       <use style="stroke:#000000;stroke-width:0.8;" x="318.278084" xlink:href="#m7ca7e4f906" y="480.6"/>
      </g>
     </g>
     <g id="text_20">
      <text style="font-family:DejaVu Sans;font-size:10px;font-stretch:normal;font-style:normal;font-weight:normal;text-anchor:middle;" transform="rotate(-0, 318.278084, 495.198438)" x="318.278084" y="495.198438">0.4</text>
     </g>
    </g>
    <g id="xtick_10">
     <g id="line2d_16">
      <g>
       <use style="stroke:#000000;stroke-width:0.8;" x="419.723134" xlink:href="#m7ca7e4f906" y="480.6"/>
      </g>
     </g>
     <g id="text_21">
      <text style="font-family:DejaVu Sans;font-size:10px;font-stretch:normal;font-style:normal;font-weight:normal;text-anchor:middle;" transform="rotate(-0, 419.723134, 495.198438)" x="419.723134" y="495.198438">0.6</text>
     </g>
    </g>
    <g id="xtick_11">
     <g id="line2d_17">
      <g>
       <use style="stroke:#000000;stroke-width:0.8;" x="521.168184" xlink:href="#m7ca7e4f906" y="480.6"/>
      </g>
     </g>
     <g id="text_22">
      <text style="font-family:DejaVu Sans;font-size:10px;font-stretch:normal;font-style:normal;font-weight:normal;text-anchor:middle;" transform="rotate(-0, 521.168184, 495.198438)" x="521.168184" y="495.198438">0.8</text>
     </g>
    </g>
    <g id="xtick_12">
     <g id="line2d_18">
      <g>
       <use style="stroke:#000000;stroke-width:0.8;" x="622.613234" xlink:href="#m7ca7e4f906" y="480.6"/>
      </g>
     </g>
     <g id="text_23">
      <text style="font-family:DejaVu Sans;font-size:10px;font-stretch:normal;font-style:normal;font-weight:normal;text-anchor:middle;" transform="rotate(-0, 622.613234, 495.198438)" x="622.613234" y="495.198438">1.0</text>
     </g>
    </g>
    <g id="text_24">
     <text style="font-family:DejaVu Sans;font-size:10px;font-stretch:normal;font-style:normal;font-weight:normal;text-anchor:middle;" transform="rotate(-0, 369, 508.876563)" x="369" y="508.876563">Y dither error [pixel]</text>
    </g>
   </g>
   <g id="matplotlib.axis_4">
    <g id="ytick_7">
     <g id="line2d_19">
      <g>
       <use style="stroke:#000000;stroke-width:0.8;" x="90" xlink:href="#m79b33ffa6f" y="480.6"/>
      </g>
     </g>
     <g id="text_25">
      <text style="font-family:DejaVu Sans;font-size:10px;font-stretch:normal;font-style:normal;font-weight:normal;text-anchor:end;" transform="rotate(-0, 83, 484.399219)" x="83" y="484.399219">0</text>
     </g>
    </g>
    <g id="ytick_8">
     <g id="line2d_20">
      <g>
       <use style="stroke:#000000;stroke-width:0.8;" x="90" xlink:href="#m79b33ffa6f" y="448.564312"/>
      </g>
     </g>
     <g id="text_26">
      <text style="font-family:DejaVu Sans;font-size:10px;font-stretch:normal;font-style:normal;font-weight:normal;text-anchor:end;" transform="rotate(-0, 83, 452.36353)" x="83" y="452.36353">1</text>
     </g>
    </g>
    <g id="ytick_9">
     <g id="line2d_21">
      <g>
       <use style="stroke:#000000;stroke-width:0.8;" x="90" xlink:href="#m79b33ffa6f" y="416.528623"/>
      </g>
     </g>
     <g id="text_27">
      <text style="font-family:DejaVu Sans;font-size:10px;font-stretch:normal;font-style:normal;font-weight:normal;text-anchor:end;" transform="rotate(-0, 83, 420.327842)" x="83" y="420.327842">2</text>
     </g>
    </g>
    <g id="ytick_10">
     <g id="line2d_22">
      <g>
       <use style="stroke:#000000;stroke-width:0.8;" x="90" xlink:href="#m79b33ffa6f" y="384.492935"/>
      </g>
     </g>
     <g id="text_28">
      <text style="font-family:DejaVu Sans;font-size:10px;font-stretch:normal;font-style:normal;font-weight:normal;text-anchor:end;" transform="rotate(-0, 83, 388.292154)" x="83" y="388.292154">3</text>
     </g>
    </g>
    <g id="ytick_11">
     <g id="line2d_23">
      <g>
       <use style="stroke:#000000;stroke-width:0.8;" x="90" xlink:href="#m79b33ffa6f" y="352.457246"/>
      </g>
     </g>
     <g id="text_29">
      <text style="font-family:DejaVu Sans;font-size:10px;font-stretch:normal;font-style:normal;font-weight:normal;text-anchor:end;" transform="rotate(-0, 83, 356.256465)" x="83" y="356.256465">4</text>
     </g>
    </g>
    <g id="ytick_12">
     <g id="line2d_24">
      <g>
       <use style="stroke:#000000;stroke-width:0.8;" x="90" xlink:href="#m79b33ffa6f" y="320.421558"/>
      </g>
     </g>
     <g id="text_30">
      <text style="font-family:DejaVu Sans;font-size:10px;font-stretch:normal;font-style:normal;font-weight:normal;text-anchor:end;" transform="rotate(-0, 83, 324.220777)" x="83" y="324.220777">5</text>
     </g>
    </g>
    <g id="text_31">
     <text style="font-family:DejaVu Sans;font-size:10px;font-stretch:normal;font-style:normal;font-weight:normal;text-anchor:middle;" transform="rotate(-90, 70.557812, 386.1)" x="70.557812" y="386.1">Probability distribution</text>
    </g>
   </g>
   <g id="patch_15">
    <path clip-path="url(#p2595a9c67f)" d="M 115.363636 480.6 
L 115.363636 300.6 
L 135.654511 300.6 
L 135.654511 326.130097 
L 155.945386 326.130097 
L 155.945386 480.6 
L 176.23626 480.6 
L 176.23626 480.6 
L 196.527135 480.6 
L 196.527135 480.6 
L 216.818009 480.6 
L 216.818009 480.6 
L 237.108884 480.6 
L 237.108884 480.6 
L 257.399759 480.6 
L 257.399759 480.6 
L 277.690633 480.6 
L 277.690633 480.6 
L 297.981508 480.6 
L 297.981508 480.6 
L 318.272382 480.6 
L 318.272382 480.6 
L 338.563257 480.6 
L 338.563257 480.6 
L 358.854132 480.6 
L 358.854132 480.6 
L 379.145006 480.6 
L 379.145006 480.6 
L 399.435881 480.6 
L 399.435881 480.6 
L 419.726755 480.6 
L 419.726755 480.6 
L 440.01763 480.6 
L 440.01763 480.6 
L 460.308505 480.6 
L 460.308505 480.6 
L 480.599379 480.6 
L 480.599379 480.6 
L 500.890254 480.6 
L 500.890254 480.6 
L 521.181128 480.6 
L 521.181128 480.6 
L 541.472003 480.6 
L 541.472003 480.6 
L 561.762878 480.6 
L 561.762878 367.44433 
L 582.053752 367.44433 
L 582.053752 305.356863 
L 602.344627 305.356863 
L 602.344627 302.650096 
L 622.635501 302.650096 
L 622.635501 480.6 
" style="fill:none;stroke:#1f77b4;stroke-linejoin:miter;"/>
   </g>
   <g id="patch_16">
    <path clip-path="url(#p2595a9c67f)" d="M 115.364854 480.6 
L 115.364854 307.454886 
L 135.655714 307.454886 
L 135.655714 321.533287 
L 155.946574 321.533287 
L 155.946574 480.6 
L 176.237435 480.6 
L 176.237435 480.6 
L 196.528295 480.6 
L 196.528295 480.6 
L 216.819156 480.6 
L 216.819156 480.6 
L 237.110016 480.6 
L 237.110016 480.6 
L 257.400876 480.6 
L 257.400876 480.6 
L 277.691737 480.6 
L 277.691737 480.6 
L 297.982597 480.6 
L 297.982597 480.6 
L 318.273458 480.6 
L 318.273458 480.6 
L 338.564318 480.6 
L 338.564318 480.6 
L 358.855178 480.6 
L 358.855178 480.6 
L 379.146039 480.6 
L 379.146039 480.6 
L 399.436899 480.6 
L 399.436899 480.6 
L 419.72776 480.6 
L 419.72776 480.6 
L 440.01862 480.6 
L 440.01862 480.6 
L 460.30948 480.6 
L 460.30948 480.6 
L 480.600341 480.6 
L 480.600341 480.6 
L 500.891201 480.6 
L 500.891201 480.6 
L 521.182062 480.6 
L 521.182062 480.6 
L 541.472922 480.6 
L 541.472922 480.6 
L 561.763782 480.6 
L 561.763782 357.690273 
L 582.054643 357.690273 
L 582.054643 307.398829 
L 602.345503 307.398829 
L 602.345503 308.10355 
L 622.636364 308.10355 
L 622.636364 480.6 
" style="fill:none;stroke:#ff7f0e;stroke-linejoin:miter;"/>
   </g>
   <g id="patch_17">
    <path clip-path="url(#p2595a9c67f)" d="M 115.364854 480.6 
L 115.364854 307.583017 
L 135.655714 307.583017 
L 135.655714 321.637394 
L 155.946574 321.637394 
L 155.946574 480.6 
L 176.237435 480.6 
L 176.237435 480.6 
L 196.528295 480.6 
L 196.528295 480.6 
L 216.819156 480.6 
L 216.819156 480.6 
L 237.110016 480.6 
L 237.110016 480.6 
L 257.400876 480.6 
L 257.400876 480.6 
L 277.691737 480.6 
L 277.691737 480.6 
L 297.982597 480.6 
L 297.982597 480.6 
L 318.273458 480.6 
L 318.273458 480.6 
L 338.564318 480.6 
L 338.564318 480.6 
L 358.855178 480.6 
L 358.855178 480.6 
L 379.146039 480.6 
L 379.146039 480.6 
L 399.436899 480.6 
L 399.436899 480.6 
L 419.72776 480.6 
L 419.72776 480.6 
L 440.01862 480.6 
L 440.01862 480.6 
L 460.30948 480.6 
L 460.30948 480.6 
L 480.600341 480.6 
L 480.600341 480.6 
L 500.891201 480.6 
L 500.891201 480.6 
L 521.182062 480.6 
L 521.182062 480.6 
L 541.472922 480.6 
L 541.472922 480.6 
L 561.763782 480.6 
L 561.763782 357.385962 
L 582.054643 357.385962 
L 582.054643 307.358788 
L 602.345503 307.358788 
L 602.345503 308.215664 
L 622.636364 308.215664 
L 622.636364 480.6 
" style="fill:none;stroke:#2ca02c;stroke-linejoin:miter;"/>
   </g>
   <g id="patch_18">
    <path d="M 90 480.6 
L 90 291.6 
" style="fill:none;stroke:#000000;stroke-linecap:square;stroke-linejoin:miter;stroke-width:0.8;"/>
   </g>
   <g id="patch_19">
    <path d="M 648 480.6 
L 648 291.6 
" style="fill:none;stroke:#000000;stroke-linecap:square;stroke-linejoin:miter;stroke-width:0.8;"/>
   </g>
   <g id="patch_20">
    <path d="M 90 480.6 
L 648 480.6 
" style="fill:none;stroke:#000000;stroke-linecap:square;stroke-linejoin:miter;stroke-width:0.8;"/>
   </g>
   <g id="patch_21">
    <path d="M 90 291.6 
L 648 291.6 
" style="fill:none;stroke:#000000;stroke-linecap:square;stroke-linejoin:miter;stroke-width:0.8;"/>
   </g>
   <g id="legend_2">
    <g id="patch_22">
     <path d="M 568.360937 343.634375 
L 641 343.634375 
Q 643 343.634375 643 341.634375 
L 643 298.6 
Q 643 296.6 641 296.6 
L 568.360937 296.6 
Q 566.360937 296.6 566.360937 298.6 
L 566.360937 341.634375 
Q 566.360937 343.634375 568.360937 343.634375 
z
" style="fill:#ffffff;opacity:0.8;stroke:#cccccc;stroke-linejoin:miter;"/>
    </g>
    <g id="patch_23">
     <path d="M 570.360937 308.198438 
L 590.360937 308.198438 
L 590.360937 301.198438 
L 570.360937 301.198438 
z
" style="fill:none;stroke:#1f77b4;stroke-linejoin:miter;"/>
    </g>
    <g id="text_32">
     <text style="font-family:DejaVu Sans;font-size:10px;font-stretch:normal;font-style:normal;font-weight:normal;text-anchor:start;" transform="rotate(-0, 598.360937, 308.198438)" x="598.360937" y="308.198438">ndshift1</text>
    </g>
    <g id="patch_24">
     <path d="M 570.360937 322.876563 
L 590.360937 322.876563 
L 590.360937 315.876563 
L 570.360937 315.876563 
z
" style="fill:none;stroke:#ff7f0e;stroke-linejoin:miter;"/>
    </g>
    <g id="text_33">
     <text style="font-family:DejaVu Sans;font-size:10px;font-stretch:normal;font-style:normal;font-weight:normal;text-anchor:start;" transform="rotate(-0, 598.360937, 322.876563)" x="598.360937" y="322.876563">ndshift3</text>
    </g>
    <g id="patch_25">
     <path d="M 570.360937 337.554688 
L 590.360937 337.554688 
L 590.360937 330.554688 
L 570.360937 330.554688 
z
" style="fill:none;stroke:#2ca02c;stroke-linejoin:miter;"/>
    </g>
    <g id="text_34">
     <text style="font-family:DejaVu Sans;font-size:10px;font-stretch:normal;font-style:normal;font-weight:normal;text-anchor:start;" transform="rotate(-0, 598.360937, 337.554688)" x="598.360937" y="337.554688">fftshift</text>
    </g>
   </g>
  </g>
  <g id="text_35">
   <text style="font-family:DejaVu Sans;font-size:12px;font-stretch:normal;font-style:normal;font-weight:normal;text-anchor:middle;" transform="rotate(-0, 360, 19.918125)" x="360" y="19.918125">PSF center using dao_star_finder</text>
  </g>
 </g>
 <defs>
  <clipPath id="p6da4d5f6ed">
   <rect height="189" width="558" x="90" y="64.8"/>
  </clipPath>
  <clipPath id="p2595a9c67f">
   <rect height="189" width="558" x="90" y="291.6"/>
  </clipPath>
 </defs>
</svg>
